\relax 
\@writefile{toc}{\contentsline {section}{\numberline {1}Design Philosophy}{1}}
\@writefile{toc}{\contentsline {subsection}{\numberline {1.1}Description}{1}}
\@writefile{toc}{\contentsline {subsection}{\numberline {1.2}UML Diagram}{2}}
\@writefile{toc}{\contentsline {section}{\numberline {2}Source Code}{3}}
\@writefile{lol}{\contentsline {lstlisting}{../pseudo/FoodManager.pseudocode}{3}}
\@writefile{lol}{\contentsline {lstlisting}{../src/FoodManager.java}{10}}
\@writefile{lol}{\contentsline {lstlisting}{../pseudo/FoodStorage.pseudocode}{21}}
\@writefile{lol}{\contentsline {lstlisting}{../src/FoodStorage.java}{30}}
\@writefile{lol}{\contentsline {lstlisting}{../pseudo/Menu.pseudocode}{44}}
\@writefile{lol}{\contentsline {lstlisting}{../src/Menu.java}{45}}
\@writefile{lol}{\contentsline {lstlisting}{../pseudo/Input.pseudocode}{47}}
\@writefile{lol}{\contentsline {lstlisting}{../src/Input.java}{50}}
\@writefile{lol}{\contentsline {lstlisting}{../pseudo/FileIO.pseudocode}{55}}
\@writefile{lol}{\contentsline {lstlisting}{../src/FileIO.java}{57}}
\@writefile{lol}{\contentsline {lstlisting}{../pseudo/Storage.pseudocode}{61}}
\@writefile{lol}{\contentsline {lstlisting}{../src/Storage.java}{61}}
\@writefile{lol}{\contentsline {lstlisting}{../pseudo/Freezer.pseudocode}{63}}
\@writefile{lol}{\contentsline {lstlisting}{../src/Freezer.java}{67}}
\@writefile{lol}{\contentsline {lstlisting}{../pseudo/Fridge.pseudocode}{72}}
\@writefile{lol}{\contentsline {lstlisting}{../src/Fridge.java}{76}}
\@writefile{lol}{\contentsline {lstlisting}{../pseudo/Pantry.pseudocode}{81}}
\@writefile{lol}{\contentsline {lstlisting}{../src/Pantry.java}{85}}
\@writefile{lol}{\contentsline {lstlisting}{../pseudo/Food.pseudocode}{90}}
\@writefile{lol}{\contentsline {lstlisting}{../src/Food.java}{93}}
\@writefile{lol}{\contentsline {lstlisting}{../pseudo/IFood.pseudocode}{96}}
\@writefile{lol}{\contentsline {lstlisting}{../src/IFood.java}{96}}
\@writefile{lol}{\contentsline {lstlisting}{../pseudo/Meat.pseudocode}{97}}
\@writefile{lol}{\contentsline {lstlisting}{../src/Meat.java}{101}}
\@writefile{lol}{\contentsline {lstlisting}{../pseudo/Grain.pseudocode}{106}}
\@writefile{lol}{\contentsline {lstlisting}{../src/Grain.java}{110}}
\@writefile{lol}{\contentsline {lstlisting}{../pseudo/Fruit.pseudocode}{115}}
\@writefile{lol}{\contentsline {lstlisting}{../src/Fruit.java}{118}}
\@writefile{lol}{\contentsline {lstlisting}{../pseudo/Vegetable.pseudocode}{123}}
\@writefile{lol}{\contentsline {lstlisting}{../src/Vegetable.java}{126}}
\@writefile{lol}{\contentsline {lstlisting}{../pseudo/Date.pseudocode}{131}}
\@writefile{lol}{\contentsline {lstlisting}{../src/Date.java}{135}}
