Pantry,543
Freezer,951
Fridge,80

Vegetable,name,0.0,22.9954,23/10/2029,Box
Fruit,name,type,8,-2.29926,21/9/2076,Box
Fruit,name,type,19,-13.20323,10/10/2089,Box
Grain,name,type,0.2,19.14637,24/9/2011,Box
Meat,name,type,2.7,2.1484,8/6/2056,Box
Vegetable,name,0.5,-2.22585,9/7/2050,Box
Grain,name,type,2.9,-24.13944,10/2/2037,Box
Vegetable,name,2.2,22.31419,3/9/2035,Box
Grain,name,type,3.2,-1.6549,24/4/2077,Box
Fruit,name,type,2,5.5732,3/11/2052,Box
Vegetable,name,4.7,-5.22656,27/2/2093,Box
Fruit,name,type,1,13.6793,17/3/2021,Box
Meat,name,type,1.2,7.9271,11/10/2045,Box
Fruit,name,type,12,19.22048,20/4/2021,Box
Grain,name,type,2.1,19.1434,14/0/2033,Box
Vegetable,name,3.0,4.10811,17/0/2054,Box
Grain,name,type,0.6,-16.754,26/6/2067,Box
Meat,name,type,1.2,-5.22484,27/8/203,Box
Vegetable,name,3.7,-3.31929,23/9/2053,Box
Fruit,name,type,15,-1.29591,4/2/2022,Box
Fruit,name,type,11,22.521,16/11/2047,Box
Fruit,name,type,17,-3.21309,10/5/2024,Box
Vegetable,name,2.7,-11.14157,19/2/2019,Box
Vegetable,name,3.9,7.32554,26/11/2055,Box
Grain,name,type,4.5,-23.18455,14/7/2091,Box
Vegetable,name,2.7,4.31682,8/10/2064,Box
Meat,name,type,1.5,10.2738,13/11/2017,Box
Fruit,name,type,13,15.18871,1/8/2032,Box
Vegetable,name,2.8,-17.30623,7/3/2035,Box
Vegetable,name,2.9,-2.16260,24/11/2070,Box
Vegetable,name,1.9,-20.26064,1/7/2035,Box
Grain,name,type,2.7,8.9710,4/4/2078,Box
Fruit,name,type,13,-19.29214,1/10/2080,Box
Vegetable,name,3.1,3.17530,11/11/2075,Box
Fruit,name,type,6,5.12269,2/4/2085,Box
Grain,name,type,1.7,23.20263,18/6/2034,Box
Fruit,name,type,5,-1.30908,5/10/2045,Box
Vegetable,name,2.0,24.19457,12/10/2042,Box
Meat,name,type,0.1,16.16455,15/10/2027,Box
Meat,name,type,1.4,-21.13670,21/5/2026,Box
Vegetable,name,2.7,4.30553,4/5/201,Box
Grain,name,type,4.7,8.19707,25/8/2061,Box
Grain,name,type,4.2,3.14150,8/8/2012,Box
Vegetable,name,2.9,-8.5420,21/11/2078,Box
Vegetable,name,2.0,9.18031,14/1/2073,Box
Grain,name,type,0.4,11.4229,27/11/2051,Box
Meat,name,type,1.9,24.5961,12/7/2099,Box
Fruit,name,type,17,23.11861,0/5/2050,Box
Vegetable,name,3.8,11.18622,3/4/2064,Box
Grain,name,type,2.5,3.10170,22/10/204,Box
Meat,name,type,4.3,-1.24684,12/4/2079,Box
Vegetable,name,3.8,-7.16857,15/1/2045,Box
Vegetable,name,0.5,-13.11069,9/7/2071,Box
Fruit,name,type,17,-14.2175,1/11/2048,Box
Grain,name,type,0.0,-11.15945,19/11/2016,Box
Grain,name,type,0.0,-1.3775,5/4/2093,Box
Grain,name,type,4.9,-1.17511,17/8/201,Box
Meat,name,type,0.7,7.4732,25/6/2013,Box
Grain,name,type,2.1,-10.5751,20/1/2093,Box
Grain,name,type,0.3,4.28437,11/6/2044,Box
Grain,name,type,2.3,-18.11720,0/8/2075,Box
Vegetable,name,4.8,21.1275,16/5/2092,Box
Vegetable,name,3.3,-17.26878,2/1/2065,Box
Vegetable,name,1.5,8.30388,13/6/200,Box
Meat,name,type,3.9,-13.10889,0/4/2044,Box
Vegetable,name,0.7,-17.19932,2/8/2028,Box
Grain,name,type,0.5,12.6854,17/0/2044,Box
Meat,name,type,1.3,-18.7744,8/1/2061,Box
Vegetable,name,0.1,-14.8758,11/2/2026,Box
Meat,name,type,1.8,12.12605,16/4/2020,Box
Grain,name,type,4.7,-18.21074,7/6/2056,Box
Grain,name,type,1.6,-10.24477,23/5/2066,Box
Vegetable,name,2.1,1.48,14/10/2048,Box
Vegetable,name,0.2,0.14358,8/8/2031,Box
Grain,name,type,3.5,-4.24872,21/7/2029,Box
Vegetable,name,4.0,-18.31804,3/4/2049,Box
Vegetable,name,0.1,-0.31045,25/2/2071,Box
Fruit,name,type,7,-23.8444,21/3/2037,Box
Grain,name,type,3.2,3.27950,7/9/202,Box
Vegetable,name,1.0,13.21976,18/0/2062,Box
Grain,name,type,0.9,24.4506,7/3/2099,Box
Meat,name,type,4.8,-0.25057,24/0/2064,Box
Grain,name,type,0.2,20.31940,16/2/2053,Box
Meat,name,type,3.5,10.15004,19/0/2033,Box
Vegetable,name,0.0,-2.20547,5/2/2047,Box
Vegetable,name,0.6,1.16619,16/3/2030,Box
Grain,name,type,2.8,21.22106,9/4/2011,Box
Fruit,name,type,7,-22.26049,24/9/2035,Box
Fruit,name,type,10,-11.112,22/2/2031,Box
Vegetable,name,1.2,0.2124,5/2/205,Box
Vegetable,name,1.4,6.13414,22/8/2065,Box
Meat,name,type,0.8,-18.1485,19/9/2057,Box
Grain,name,type,2.3,24.19231,25/8/2082,Box
Fruit,name,type,11,-11.19798,23/1/2094,Box
Vegetable,name,2.8,-22.24944,11/3/2074,Box
Meat,name,type,1.4,-1.1949,2/9/2049,Box
Vegetable,name,4.6,16.25082,15/5/207,Box
Meat,name,type,2.1,-5.19358,3/3/2014,Box
Vegetable,name,3.0,6.13559,15/0/2079,Box
Vegetable,name,4.1,15.2287,24/6/2095,Box
